{
  "version": "2.1",
  "licenses": [
    {
      "id": "Apache-2.0",
      "name": "Apache License 2.0",
      "url": "https://opensource.org/licenses/Apache-2.0"
    },
    {
      "id": "LGPL-2.1",
      "name": "GNU Lesser General Public License v2.1 only",
      "url": "https://opensource.org/licenses/LGPL-2.1"
    },
    {
      "id": "MPL-1.1",
      "name": "Mozilla Public License 1.1",
      "url": "https://opensource.org/licenses/MPL-1.1"
    },
    {
      "id": "bsd",
      "name": "BSD",
      "url": "http://en.wikipedia.org/wiki/BSD_licenses"
    },
    {
      "id": "unknown",
      "name": "unknown",
      "url": ""
    }
  ],
  "dependencies": [
    {
      "name": "asm",
      "version": "3.3",
      "package_manager": "maven",
      "path": "pom.xml",
      "licenses": [
        "bsd"
      ]
    },
    {
      "name": "asm-commons",
      "version": "3.3",
      "package_manager": "maven",
      "path": "pom.xml",
      "licenses": [
        "bsd"
      ]
    },
    {
      "name": "asm-tree",
      "version": "3.3",
      "package_manager": "maven",
      "path": "pom.xml",
      "licenses": [
        "bsd"
      ]
    },
    {
      "name": "commons-fileupload",
      "version": "1.3.1",
      "package_manager": "maven",
      "path": "pom.xml",
      "licenses": [
        "Apache-2.0"
      ]
    },
    {
      "name": "commons-io",
      "version": "2.4",
      "package_manager": "maven",
      "path": "pom.xml",
      "licenses": [
        "Apache-2.0"
      ]
    },
    {
      "name": "commons-lang3",
      "version": "3.4",
      "package_manager": "maven",
      "path": "pom.xml",
      "licenses": [
        "Apache-2.0"
      ]
    },
    {
      "name": "freemarker",
      "version": "2.3.23",
      "package_manager": "maven",
      "path": "pom.xml",
      "licenses": [
        "Apache-2.0"
      ]
    },
    {
      "name": "jackson-annotations",
      "version": "2.7.0",
      "package_manager": "maven",
      "path": "pom.xml",
      "licenses": [
        "Apache-2.0"
      ]
    },
    {
      "name": "jackson-core",
      "version": "2.7.3",
      "package_manager": "maven",
      "path": "pom.xml",
      "licenses": [
        "Apache-2.0"
      ]
    },
    {
      "name": "jackson-databind",
      "version": "2.7.3",
      "package_manager": "maven",
      "path": "pom.xml",
      "licenses": [
        "Apache-2.0"
      ]
    },
    {
      "name": "jackson-dataformat-xml",
      "version": "2.7.3",
      "package_manager": "maven",
      "path": "pom.xml",
      "licenses": [
        "Apache-2.0"
      ]
    },
    {
      "name": "jackson-module-jaxb-annotations",
      "version": "2.7.3",
      "package_manager": "maven",
      "path": "pom.xml",
      "licenses": [
        "Apache-2.0"
      ]
    },
    {
      "name": "javassist",
      "version": "3.20.0-GA",
      "package_manager": "maven",
      "path": "pom.xml",
      "licenses": [
        "Apache-2.0",
        "LGPL-2.1",
        "MPL-1.1"
      ]
    },
    {
      "name": "log4j-api",
      "version": "2.5",
      "package_manager": "maven",
      "path": "pom.xml",
      "licenses": [
        "Apache-2.0"
      ]
    },
    {
      "name": "log4j-api",
      "version": "2.8.2",
      "package_manager": "maven",
      "path": "pom.xml",
      "licenses": [
        "Apache-2.0"
      ]
    },
    {
      "name": "log4j-core",
      "version": "2.8.2",
      "package_manager": "maven",
      "path": "pom.xml",
      "licenses": [
        "Apache-2.0"
      ]
    },
    {
      "name": "model",
      "version": "1.0-SNAPSHOT",
      "package_manager": "maven",
      "path": "pom.xml",
      "licenses": [
        "unknown"
      ]
    },
    {
      "name": "netty-all",
      "version": "4.1.0.Final",
      "package_manager": "maven",
      "path": "pom.xml",
      "licenses": [
        "Apache-2.0"
      ]
    },
    {
      "name": "ognl",
      "version": "3.1.8",
      "package_manager": "maven",
      "path": "pom.xml",
      "licenses": [
        "Apache-2.0"
      ]
    },
    {
      "name": "stax2-api",
      "version": "3.1.4",
      "package_manager": "maven",
      "path": "pom.xml",
      "licenses": [
        "bsd"
      ]
    },
    {
      "name": "struts2-core",
      "version": "2.5.1",
      "package_manager": "maven",
      "path": "pom.xml",
      "licenses": [
        "Apache-2.0"
      ]
    }
  ]
}